%YAML 1.1
%TAG !u! tag:unity3d.com,2011:
--- !u!21 &2100000
Material:
  serializedVersion: 6
  m_ObjectHideFlags: 0
  m_PrefabParentObject: {fileID: 0}
  m_PrefabInternal: {fileID: 0}
  m_Name: 05
  m_Shader: {fileID: 4800000, guid: afd6c1c8522366c4193254ee10b4929f, type: 3}
  m_ShaderKeywords: 
  m_LightmapFlags: 5
  m_CustomRenderQueue: -1
  stringTagMap: {}
  m_SavedProperties:
    serializedVersion: 2
    m_TexEnvs:
      data:
        first:
          name: _MainTex
        second:
          m_Texture: {fileID: 2800000, guid: f228a0fe3aadedb4485f89abb8016e7d, type: 3}
          m_Scale: {x: 1, y: 1}
          m_Offset: {x: 0, y: 0}
    m_Floats:
      data:
        first:
          name: _Stencil
        second: 0
      data:
        first:
          name: _StencilComp
        second: 8
      data:
        first:
          name: _StencilOp
        second: 0
      data:
        first:
          name: _ColorMask
        second: 15
    m_Colors: {}
